^C:\TEMP\PACMAN\PACMAN\DEBUG\INFOSGRAPHEDESSIN.OBJ|C:\TEMP\PACMAN\PACMAN\DEBUG\TESTDESSINGRAPHE.OBJ|C:\TEMP\PACMAN\PACMAN\DEBUG\TESTGRAPHEGENERAL.OBJ
C:\TEMP\PACMAN\DEBUG\PACMAN.EXE
C:\TEMP\PACMAN\DEBUG\PACMAN.ILK
C:\TEMP\PACMAN\DEBUG\PACMAN.PDB
